EDA on Amazon Books
…
Data Arranging

Lets take a look at the highest ratings in the dataset, the authors with 4.9 and above.

## # A tibble: 52 × 3
##    Author               `User Rating` Reviews
##    <chr>                        <dbl>   <dbl>
##  1 Bill Martin Jr.                4.9   14344
##  2 Bill Martin Jr.                4.9   14344
##  3 Dav Pilkey                     4.9    5062
##  4 Dav Pilkey                     4.9    4786
##  5 Dav Pilkey                     4.9    7235
##  6 Dav Pilkey                     4.9    7235
##  7 Dav Pilkey                     4.9   12619
##  8 Dav Pilkey                     4.9    9089
##  9 Dav Pilkey                     4.9    5470
## 10 Sherri Duskey Rinker           4.9    7038
## # … with 42 more rows
…
I am also curious to see who has the most books in the top 50, so let’s take a look at that.

## # A tibble: 248 × 2
##    Author                                 n
##    <chr>                              <int>
##  1 Jeff Kinney                           12
##  2 Gary Chapman                          11
##  3 Rick Riordan                          11
##  4 Suzanne Collins                       11
##  5 American Psychological Association    10
##  6 Dr. Seuss                              9
##  7 Gallup                                 9
##  8 Rob Elliott                            8
##  9 Bill O'Reilly                          7
## 10 Dav Pilkey                             7
## # … with 238 more rows
…
